데이터 변형
…
3장에서는 아래와 같은 패키지를 사용하기 때문에 사전 준비가 필요합니다. 앞서 1장에서 배웠듯이 패키지는 한 번만 설치하면 되지만, 새로운 세션을 시작할 때마다 다시 로드해야 합니다.

install.packages("nycflights13")
install.packages("tidyverse")

library(nycflights13)
library(tidyverse)

3.1.2 nycflights13

dplyr의 기본 데이터 작업(manipulation-머니펼레이션) 동사를 탐색하기 위해서 nycflights13::flights를 사용할 것입니다. 이 데이터프레임에는 뉴욕시에서 2013년에 출발한 모든 항공편이 포함되어 있습니다.

flights

## # A tibble: 336,776 x 19
##     year month   day dep_time sched_dep_time dep_delay arr_time sched_arr_time
##    <int> <int> <int>    <int>          <int>     <dbl>    <int>          <int>
##  1  2013     1     1      517            515         2      830            819
##  2  2013     1     1      533            529         4      850            830
##  3  2013     1     1      542            540         2      923            850
##  4  2013     1     1      544            545        -1     1004           1022
##  5  2013     1     1      554            600        -6      812            837
##  6  2013     1     1      554            558        -4      740            728
##  7  2013     1     1      555            600        -5      913            854
##  8  2013     1     1      557            600        -3      709            723
##  9  2013     1     1      557            600        -3      838            846
## 10  2013     1     1      558            600        -2      753            745
## # ... with 336,766 more rows, and 11 more variables: arr_delay <dbl>,
## #   carrier <chr>, flight <int>, tailnum <chr>, origin <chr>, dest <chr>,
## #   air_time <dbl>, distance <dbl>, hour <dbl>, minute <dbl>, time_hour <dttm>
…
이것들은 모두 group_by()와 함께 사용할 수 있는데, 이는 전체 데이터셋에 동작하지 않고 그룹마다 동작하도록 각 함수의 범위를 변경합니다. 이 여섯 함수가 데이터 작업 언어에서 동사가 됩니다. 이 속성들을 함께 이용하면 여러 단순한 단계를 쉽게 연결하여 복잡한 결과를 얻을 수 있습니다.

첫 인수는 데이터프레임입니다.

그 이후의 인수들은 (따옴표가 없는) 변수 이름을 사용하여 데이터프레임에 무엇을 할지를 설명합니다.

결과는 새로운 데이터프레임입니다.

3.2 filter()로 행 필터링하기

filter()를 이용하면 값을 기준으로 데이터를 서브셋 할 수 있습니다. 첫 번째 인수는 데이터프레임 이름이고, 두 번째 이후의 인수들은 데이터프레임을 필터링하는 표현식들입니다. 예를 들어 1월 1일 항공편 모두를 다음과 같이 선택할 수 있습니다.

filter(flights, month == 1, day == 1)

## # A tibble: 842 x 19
##     year month   day dep_time sched_dep_time dep_delay arr_time sched_arr_time
##    <int> <int> <int>    <int>          <int>     <dbl>    <int>          <int>
##  1  2013     1     1      517            515         2      830            819
##  2  2013     1     1      533            529         4      850            830
##  3  2013     1     1      542            540         2      923            850
##  4  2013     1     1      544            545        -1     1004           1022
##  5  2013     1     1      554            600        -6      812            837
##  6  2013     1     1      554            558        -4      740            728
##  7  2013     1     1      555            600        -5      913            854
##  8  2013     1     1      557            600        -3      709            723
##  9  2013     1     1      557            600        -3      838            846
## 10  2013     1     1      558            600        -2      753            745
## # ... with 832 more rows, and 11 more variables: arr_delay <dbl>,
## #   carrier <chr>, flight <int>, tailnum <chr>, origin <chr>, dest <chr>,
## #   air_time <dbl>, distance <dbl>, hour <dbl>, minute <dbl>, time_hour <dttm>

dplyr 함수들은 입력을 절대 수정하지 않기 때문에, 결과를 저장하려면 할당 연산자 <-를 사용해야 합니다.

jan1 <- filter(flights, month == 1, day == 1)

R은 결과를 출력하거나 변수에 저장합니다. 둘 다 수행되게 하려면 할당문을 괄호로 묶으면 됩니다.

(dec25 <- filter(flights, month == 12, day == 25))

## # A tibble: 719 x 19
##     year month   day dep_time sched_dep_time dep_delay arr_time sched_arr_time
##    <int> <int> <int>    <int>          <int>     <dbl>    <int>          <int>
##  1  2013    12    25      456            500        -4      649            651
##  2  2013    12    25      524            515         9      805            814
##  3  2013    12    25      542            540         2      832            850
##  4  2013    12    25      546            550        -4     1022           1027
##  5  2013    12    25      556            600        -4      730            745
##  6  2013    12    25      557            600        -3      743            752
##  7  2013    12    25      557            600        -3      818            831
##  8  2013    12    25      559            600        -1      855            856
##  9  2013    12    25      559            600        -1      849            855
## 10  2013    12    25      600            600         0      850            846
## # ... with 709 more rows, and 11 more variables: arr_delay <dbl>,
## #   carrier <chr>, flight <int>, tailnum <chr>, origin <chr>, dest <chr>,
## #   air_time <dbl>, distance <dbl>, hour <dbl>, minute <dbl>, time_hour <dttm>
…
filter(df, is.na(x) | x > 1)

## # A tibble: 2 x 1
##       x
##   <dbl>
## 1    NA
## 2     3

3.3 arrange()로 행 정렬하기

arrange()는 행을 선택하는 대신, 순서를 바꾼다는 것만 제외하고는 filter()와 유사하게 작동합니다. 데이터프레임과 정렬기준으로 지정할 열 이름 집합(혹은 복잡한 표현식)을 입력으로 합니다. 하나 이상의 열 이름을 제공하면 각 열은 이전 열의 동점값(tie) 상황을 해결하는 데 사용됩니다.

arrange(flights, year, month, day)

## # A tibble: 336,776 x 19
##     year month   day dep_time sched_dep_time dep_delay arr_time sched_arr_time
##    <int> <int> <int>    <int>          <int>     <dbl>    <int>          <int>
##  1  2013     1     1      517            515         2      830            819
##  2  2013     1     1      533            529         4      850            830
##  3  2013     1     1      542            540         2      923            850
##  4  2013     1     1      544            545        -1     1004           1022
##  5  2013     1     1      554            600        -6      812            837
##  6  2013     1     1      554            558        -4      740            728
##  7  2013     1     1      555            600        -5      913            854
##  8  2013     1     1      557            600        -3      709            723
##  9  2013     1     1      557            600        -3      838            846
## 10  2013     1     1      558            600        -2      753            745
## # ... with 336,766 more rows, and 11 more variables: arr_delay <dbl>,
## #   carrier <chr>, flight <int>, tailnum <chr>, origin <chr>, dest <chr>,
## #   air_time <dbl>, distance <dbl>, hour <dbl>, minute <dbl>, time_hour <dttm>

내림차순으로 열을 재정렬하려면 desc()를 사용합니다.

arrange(flights, desc(dep_delay))

## # A tibble: 336,776 x 19
##     year month   day dep_time sched_dep_time dep_delay arr_time sched_arr_time
##    <int> <int> <int>    <int>          <int>     <dbl>    <int>          <int>
##  1  2013     1     9      641            900      1301     1242           1530
##  2  2013     6    15     1432           1935      1137     1607           2120
##  3  2013     1    10     1121           1635      1126     1239           1810
##  4  2013     9    20     1139           1845      1014     1457           2210
##  5  2013     7    22      845           1600      1005     1044           1815
##  6  2013     4    10     1100           1900       960     1342           2211
##  7  2013     3    17     2321            810       911      135           1020
##  8  2013     6    27      959           1900       899     1236           2226
##  9  2013     7    22     2257            759       898      121           1026
## 10  2013    12     5      756           1700       896     1058           2020
## # ... with 336,766 more rows, and 11 more variables: arr_delay <dbl>,
## #   carrier <chr>, flight <int>, tailnum <chr>, origin <chr>, dest <chr>,
## #   air_time <dbl>, distance <dbl>, hour <dbl>, minute <dbl>, time_hour <dttm>
…
## # A tibble: 3 x 1
##       x
##   <dbl>
## 1     5
## 2     2
## 3    NA

3.4 select()로 열 선택하기

변수가 매우 많은 데이터셋을 만날 결우 첫 과제는 실제로 관심 있는 변수들로 좁히는 것입니다. select()와 변수 이름에 기반한 연산들을 이용하면 유용한 서브셋으로 신속하게 줌인(zoom in)해 볼 수 있습니다.

# 이름으로 열 선택
select(flights, year, month, day)

## # A tibble: 336,776 x 3
##     year month   day
##    <int> <int> <int>
##  1  2013     1     1
##  2  2013     1     1
##  3  2013     1     1
##  4  2013     1     1
##  5  2013     1     1
##  6  2013     1     1
##  7  2013     1     1
##  8  2013     1     1
##  9  2013     1     1
## 10  2013     1     1
## # ... with 336,766 more rows

# year과 day 사이의(경계 포함) 열 모두 선택
select(flights, year:day)

## # A tibble: 336,776 x 3
##     year month   day
##    <int> <int> <int>
##  1  2013     1     1
##  2  2013     1     1
##  3  2013     1     1
##  4  2013     1     1
##  5  2013     1     1
##  6  2013     1     1
##  7  2013     1     1
##  8  2013     1     1
##  9  2013     1     1
## 10  2013     1     1
## # ... with 336,766 more rows

# year에서 day까지의(경계 포함) 열들을 제외한 열 모두 선택
select(flights, -(year:day))

## # A tibble: 336,776 x 16
##    dep_time sched_dep_time dep_delay arr_time sched_arr_time arr_delay carrier
##       <int>          <int>     <dbl>    <int>          <int>     <dbl> <chr>  
##  1      517            515         2      830            819        11 UA     
##  2      533            529         4      850            830        20 UA     
##  3      542            540         2      923            850        33 AA     
##  4      544            545        -1     1004           1022       -18 B6     
##  5      554            600        -6      812            837       -25 DL     
##  6      554            558        -4      740            728        12 UA     
##  7      555            600        -5      913            854        19 B6     
##  8      557            600        -3      709            723       -14 EV     
##  9      557            600        -3      838            846        -8 B6     
## 10      558            600        -2      753            745         8 AA     
## # ... with 336,766 more rows, and 9 more variables: flight <int>,
## #   tailnum <chr>, origin <chr>, dest <chr>, air_time <dbl>, distance <dbl>,
## #   hour <dbl>, minute <dbl>, time_hour <dttm>
…
starts_with("abc") ’abc로 시작하는 이름에 매칭

ends_with("xyz") ’xyz’로 끝나는 이름에 매칭

contains("ijk") ’ijk’를 포함하는 이름에 매칭

matches("(.)\\1") 정규표현식에 매칭되는 변수들을 선택. 이 표현식은 반복되는 문자를 포함하는 변수에 매칭됩니다.

num_range("x", 1:3) x1, x2, x3에 매칭

변수명 변경에 select()를 이용할 수 있지만, 명시적으로 언급하지 않은 모든 변수를 누락하기 때문에 유용하지 않습니다. 대신 select()의 변형인 rename()을 사용하면 명시적으로 언급하지 않은 모든 변수를 유지합니다.

rename(flights, tail_num = tailnum)

## # A tibble: 336,776 x 19
##     year month   day dep_time sched_dep_time dep_delay arr_time sched_arr_time
##    <int> <int> <int>    <int>          <int>     <dbl>    <int>          <int>
##  1  2013     1     1      517            515         2      830            819
##  2  2013     1     1      533            529         4      850            830
##  3  2013     1     1      542            540         2      923            850
##  4  2013     1     1      544            545        -1     1004           1022
##  5  2013     1     1      554            600        -6      812            837
##  6  2013     1     1      554            558        -4      740            728
##  7  2013     1     1      555            600        -5      913            854
##  8  2013     1     1      557            600        -3      709            723
##  9  2013     1     1      557            600        -3      838            846
## 10  2013     1     1      558            600        -2      753            745
## # ... with 336,766 more rows, and 11 more variables: arr_delay <dbl>,
## #   carrier <chr>, flight <int>, tail_num <chr>, origin <chr>, dest <chr>,
## #   air_time <dbl>, distance <dbl>, hour <dbl>, minute <dbl>, time_hour <dttm>

다른 방법은 select()를 도우미 함수인 everything()과 함께 사용하는 것입니다. 몇 개의 변수를 데이터프레임의 시작 부분으로 옮기고 싶을 때 유용합니다.

select(flights, time_hour, air_time, everything())

## # A tibble: 336,776 x 19
##    time_hour           air_time  year month   day dep_time sched_dep_time
##    <dttm>                 <dbl> <int> <int> <int>    <int>          <int>
##  1 2013-01-01 05:00:00      227  2013     1     1      517            515
##  2 2013-01-01 05:00:00      227  2013     1     1      533            529
##  3 2013-01-01 05:00:00      160  2013     1     1      542            540
##  4 2013-01-01 05:00:00      183  2013     1     1      544            545
##  5 2013-01-01 06:00:00      116  2013     1     1      554            600
##  6 2013-01-01 05:00:00      150  2013     1     1      554            558
##  7 2013-01-01 06:00:00      158  2013     1     1      555            600
##  8 2013-01-01 06:00:00       53  2013     1     1      557            600
##  9 2013-01-01 06:00:00      140  2013     1     1      557            600
## 10 2013-01-01 06:00:00      138  2013     1     1      558            600
## # ... with 336,766 more rows, and 12 more variables: dep_delay <dbl>,
## #   arr_time <int>, sched_arr_time <int>, arr_delay <dbl>, carrier <chr>,
## #   flight <int>, tailnum <chr>, origin <chr>, dest <chr>, distance <dbl>,
## #   hour <dbl>, minute <dbl>
…
mutate()는 기존 열들의 함수인 새로운 열을 추가하는 일을 합니다.

# `mutate()`는 새로운 열을 항상 데이터셋 마지막에 추가하기 때문에, 새로운 변수를 보기 편하게 우선 더 좁은 데이터셋을 생성하겠습니다.
flights_sml <- select(flights, 
  year:day, 
  ends_with("delay"), 
  distance, 
  air_time
)
mutate(flights_sml,
  gain = dep_delay - arr_delay,
  speed = distance / air_time * 60
)

## # A tibble: 336,776 x 9
##     year month   day dep_delay arr_delay distance air_time  gain speed
##    <int> <int> <int>     <dbl>     <dbl>    <dbl>    <dbl> <dbl> <dbl>
##  1  2013     1     1         2        11     1400      227    -9  370.
##  2  2013     1     1         4        20     1416      227   -16  374.
##  3  2013     1     1         2        33     1089      160   -31  408.
##  4  2013     1     1        -1       -18     1576      183    17  517.
##  5  2013     1     1        -6       -25      762      116    19  394.
##  6  2013     1     1        -4        12      719      150   -16  288.
##  7  2013     1     1        -5        19     1065      158   -24  404.
##  8  2013     1     1        -3       -14      229       53    11  259.
##  9  2013     1     1        -3        -8      944      140     5  405.
## 10  2013     1     1        -2         8      733      138   -10  319.
## # ... with 336,766 more rows

# 방금 생성한 열을 참조할 수 있습니다.
mutate(flights_sml,
  gain = dep_delay - arr_delay,
  hours = air_time / 60,
  gain_per_hour = gain / hours
)

## # A tibble: 336,776 x 10
##     year month   day dep_delay arr_delay distance air_time  gain hours
##    <int> <int> <int>     <dbl>     <dbl>    <dbl>    <dbl> <dbl> <dbl>
##  1  2013     1     1         2        11     1400      227    -9 3.78 
##  2  2013     1     1         4        20     1416      227   -16 3.78 
##  3  2013     1     1         2        33     1089      160   -31 2.67 
##  4  2013     1     1        -1       -18     1576      183    17 3.05 
##  5  2013     1     1        -6       -25      762      116    19 1.93 
##  6  2013     1     1        -4        12      719      150   -16 2.5  
##  7  2013     1     1        -5        19     1065      158   -24 2.63 
##  8  2013     1     1        -3       -14      229       53    11 0.883
##  9  2013     1     1        -3        -8      944      140     5 2.33 
## 10  2013     1     1        -2         8      733      138   -10 2.3  
## # ... with 336,766 more rows, and 1 more variable: gain_per_hour <dbl>

# 새 변수만을 남기고 싶다면 transmute()를 사용합니다.
transmute(flights,
  gain = dep_delay - arr_delay,
  hours = air_time / 60,
  gain_per_hour = gain / hours
)

## # A tibble: 336,776 x 3
##     gain hours gain_per_hour
##    <dbl> <dbl>         <dbl>
##  1    -9 3.78          -2.38
##  2   -16 3.78          -4.23
##  3   -31 2.67         -11.6 
##  4    17 3.05           5.57
##  5    19 1.93           9.83
##  6   -16 2.5           -6.4 
##  7   -24 2.63          -9.11
##  8    11 0.883         12.5 
##  9     5 2.33           2.14
## 10   -10 2.3           -4.35
## # ... with 336,766 more rows
…
’재활용 규칙’을 이용하여 이들은 모두 벡터화됩니다. 인수 하나가 단일 숫자인 경우에 가장 유용합니다. air_time / 60, hours * 60 + minute 등.

모듈러 연산 %/%, %%

%/%(정수 나누기), %%(나머지). 모듈러 연산은 정수를 조각으로 분해할 수 있기 때문에 편리한 도구입니다.

# 예를 들어 항공편 데이터셋의 dep_time으로부터 hour와 minute을 다음과 같이 계산할 수 있습니다.
transmute(flights,
  dep_time,
  hour = dep_time %/% 100,
  minute = dep_time %% 100
)

## # A tibble: 336,776 x 3
##    dep_time  hour minute
##       <int> <dbl>  <dbl>
##  1      517     5     17
##  2      533     5     33
##  3      542     5     42
##  4      544     5     44
##  5      554     5     54
##  6      554     5     54
##  7      555     5     55
##  8      557     5     57
##  9      557     5     57
## 10      558     5     58
## # ... with 336,766 more rows
…
## # A tibble: 1 x 1
##   delay
##   <dbl>
## 1  12.6

group_by()는 분석의 단위를 전체 데이터셋에서 개별 그룹으로 변경시킵니다. 이후 dplyr 동사를 그룹화된 데이터프레임에 사용하면 이 동사가 ‘그룹마다(by group)’ 적용됩니다.

# 날짜로 그룹화된 데이터프레임에 정확히 같은 코드를 적용하면 날짜별 평균 지연시간이 나옵니다.
by_day <- group_by(flights, year, month, day)

summarise(by_day, delay = mean(dep_delay, na.rm = TRUE))

## `summarise()` regrouping output by 'year', 'month' (override with `.groups` argument)

## # A tibble: 365 x 4
## # Groups:   year, month [12]
##     year month   day delay
##    <int> <int> <int> <dbl>
##  1  2013     1     1 11.5 
##  2  2013     1     2 13.9 
##  3  2013     1     3 11.0 
##  4  2013     1     4  8.95
##  5  2013     1     5  5.73
##  6  2013     1     6  7.15
##  7  2013     1     7  5.42
##  8  2013     1     8  2.55
##  9  2013     1     9  2.28
## 10  2013     1    10  2.84
## # ... with 355 more rows
…
## `summarise()` ungrouping output (override with `.groups` argument)

파이프를 사용하여 다중 작업을 왼쪽에서 오른쪽으로, 위에서 아래로 읽을 수 있게 다시 쓸 수 있습니다. 파이프를 사용하면 코드 가독성이 훨씬 좋아집니다. 파이프로 작업하는 것은 tidyverse에 속하기 위한 핵심 기준 중 하나입니다.

3.6.2 결측값

# na.rm 인수를 설정하지 않으면 결측값이 많이 생깁니다.
flights %>% 
  group_by(year, month, day) %>% 
  summarise(mean = mean(dep_delay))

## `summarise()` regrouping output by 'year', 'month' (override with `.groups` argument)

## # A tibble: 365 x 4
## # Groups:   year, month [12]
##     year month   day  mean
##    <int> <int> <int> <dbl>
##  1  2013     1     1    NA
##  2  2013     1     2    NA
##  3  2013     1     3    NA
##  4  2013     1     4    NA
##  5  2013     1     5    NA
##  6  2013     1     6    NA
##  7  2013     1     7    NA
##  8  2013     1     8    NA
##  9  2013     1     9    NA
## 10  2013     1    10    NA
## # ... with 355 more rows

집계 함수는 결측값에 관한 일반적인 법칙(즉, 입력에 결측값이 있으면 출력도 결측값이 된다)을 따르기 때문입니다. 모든 집계 함수에는 na.rm 인수가 있어서 계산 전에 결측값들을 제거할 수 있습니다.

flights %>% 
  group_by(year, month, day) %>% 
  summarise(mean = mean(dep_delay, na.rm = TRUE))

## `summarise()` regrouping output by 'year', 'month' (override with `.groups` argument)

## # A tibble: 365 x 4
## # Groups:   year, month [12]
##     year month   day  mean
##    <int> <int> <int> <dbl>
##  1  2013     1     1 11.5 
##  2  2013     1     2 13.9 
##  3  2013     1     3 11.0 
##  4  2013     1     4  8.95
##  5  2013     1     5  5.73
##  6  2013     1     6  7.15
##  7  2013     1     7  5.42
##  8  2013     1     8  2.55
##  9  2013     1     9  2.28
## 10  2013     1    10  2.84
## # ... with 355 more rows

이 경우에서 결측값은 취소된 항공편을 나타내므로, 취소된 항공편을 제거하여 문제를 해결할 수 있습니다.

not_cancelled <- flights %>% 
  filter(!is.na(dep_delay), !is.na(arr_delay))

not_cancelled %>% 
  group_by(year, month, day) %>% 
  summarise(mean = mean(dep_delay))

## `summarise()` regrouping output by 'year', 'month' (override with `.groups` argument)

## # A tibble: 365 x 4
## # Groups:   year, month [12]
##     year month   day  mean
##    <int> <int> <int> <dbl>
##  1  2013     1     1 11.4 
##  2  2013     1     2 13.7 
##  3  2013     1     3 10.9 
##  4  2013     1     4  8.97
##  5  2013     1     5  5.73
##  6  2013     1     6  7.15
##  7  2013     1     7  5.42
##  8  2013     1     8  2.56
##  9  2013     1     9  2.30
## 10  2013     1    10  2.84
## # ... with 355 more rows
…
