ch12_forcats로 하는 팩터형
…
f2 <- x1 %>% factor() %>% fct_inorder()
f2

## [1] Dec Apr Jan Mar
## Levels: Dec Apr Jan Mar

12.3 종합사회조사

시카고 대학 독립연구기관인 NORC 에서 장기간 수행한 미국내 설문조사(General Social Survey)의 샘플 데이터이다.수천개의 문항이 있는데, 이중에서도 팩터형과 작업할 때 자주 발생하는 문제를 보여주는 것들을 gss_cat 으로 선택했다.

gss_cat

## # A tibble: 21,483 x 9
##     year marital     age race  rincome    partyid     relig     denom    tvhours
##    <int> <fct>     <int> <fct> <fct>      <fct>       <fct>     <fct>      <int>
##  1  2000 Never ma~    26 White $8000 to ~ Ind,near r~ Protesta~ Souther~      12
##  2  2000 Divorced     48 White $8000 to ~ Not str re~ Protesta~ Baptist~      NA
##  3  2000 Widowed      67 White Not appli~ Independent Protesta~ No deno~       2
##  4  2000 Never ma~    39 White Not appli~ Ind,near r~ Orthodox~ Not app~       4
##  5  2000 Divorced     25 White Not appli~ Not str de~ None      Not app~       1
##  6  2000 Married      25 White $20000 - ~ Strong dem~ Protesta~ Souther~      NA
##  7  2000 Never ma~    36 White $25000 or~ Not str re~ Christian Not app~       3
##  8  2000 Divorced     44 White $7000 to ~ Ind,near d~ Protesta~ Luthera~      NA
##  9  2000 Married      44 White $25000 or~ Not str de~ Protesta~ Other          0
## 10  2000 Married      47 White $25000 or~ Strong rep~ Protesta~ Souther~       3
## # ... with 21,473 more rows
…
